^C:\USERS\SNOW CHRISTMAS\DROPBOX\자료구조 응용 - 정순기 교수님(2016)\풀이\DS14\4\DEBUG\MAIN.OBJ
C:\USERS\SNOW CHRISTMAS\DROPBOX\자료구조 응용 - 정순기 교수님(2016)\풀이\DS14\DEBUG\4.ILK
C:\USERS\SNOW CHRISTMAS\DROPBOX\자료구조 응용 - 정순기 교수님(2016)\풀이\DS14\DEBUG\4.EXE
C:\USERS\SNOW CHRISTMAS\DROPBOX\자료구조 응용 - 정순기 교수님(2016)\풀이\DS14\DEBUG\4.PDB
