^C:\USERS\SNOW CHRISTMAS\DROPBOX\자료구조 응용 - 정순기 교수님(2016)\풀이\DS 14\1\MAIN.C
/c /ZI /nologo /W3 /WX- /sdl /Od /Oy- /D _MBCS /Gm /EHsc /RTC1 /MDd /GS /fp:precise /Zc:wchar_t /Zc:forScope /Fo"DEBUG\\" /Fd"DEBUG\VC120.PDB" /Gd /TC /analyze- C:\USERS\SNOW CHRISTMAS\DROPBOX\자료구조 응용 - 정순기 교수님(2016)\풀이\DS 14\1\MAIN.C
^C:\USERS\SNOW CHRISTMAS\DROPBOX\자료구조 응용 - 정순기 교수님(2016)\풀이\DS14\1\MAIN.C
/c /ZI /nologo /W3 /WX- /sdl /Od /Oy- /D _MBCS /Gm /EHsc /RTC1 /MDd /GS /fp:precise /Zc:wchar_t /Zc:forScope /Fo"DEBUG\\" /Fd"DEBUG\VC120.PDB" /Gd /TC /analyze- C:\USERS\SNOW CHRISTMAS\DROPBOX\자료구조 응용 - 정순기 교수님(2016)\풀이\DS14\1\MAIN.C
