^C:\USERS\SNOW CHRISTMAS\DROPBOX\자료구조 응용 - 정순기 교수님(2016)\풀이\DS 14\2\DEBUG\MAIN.OBJ
/OUT:"C:\USERS\SNOW CHRISTMAS\DROPBOX\자료구조 응용 - 정순기 교수님(2016)\풀이\DS 14\DEBUG\2.EXE" /INCREMENTAL /NOLOGO kernel32.lib user32.lib gdi32.lib winspool.lib comdlg32.lib advapi32.lib shell32.lib ole32.lib oleaut32.lib uuid.lib odbc32.lib odbccp32.lib /MANIFEST /MANIFESTUAC:"level='asInvoker' uiAccess='false'" /manifest:embed /DEBUG /PDB:"C:\USERS\SNOW CHRISTMAS\DROPBOX\자료구조 응용 - 정순기 교수님(2016)\풀이\DS 14\DEBUG\2.PDB" /SUBSYSTEM:CONSOLE /TLBID:1 /DYNAMICBASE /NXCOMPAT /IMPLIB:"C:\USERS\SNOW CHRISTMAS\DROPBOX\자료구조 응용 - 정순기 교수님(2016)\풀이\DS 14\DEBUG\2.LIB" /MACHINE:X86 DEBUG\MAIN.OBJ
^C:\USERS\SNOW CHRISTMAS\DROPBOX\자료구조 응용 - 정순기 교수님(2016)\풀이\DS14\2\DEBUG\MAIN.OBJ
/OUT:"C:\USERS\SNOW CHRISTMAS\DROPBOX\자료구조 응용 - 정순기 교수님(2016)\풀이\DS14\DEBUG\2.EXE" /INCREMENTAL /NOLOGO kernel32.lib user32.lib gdi32.lib winspool.lib comdlg32.lib advapi32.lib shell32.lib ole32.lib oleaut32.lib uuid.lib odbc32.lib odbccp32.lib /MANIFEST /MANIFESTUAC:"level='asInvoker' uiAccess='false'" /manifest:embed /DEBUG /PDB:"C:\USERS\SNOW CHRISTMAS\DROPBOX\자료구조 응용 - 정순기 교수님(2016)\풀이\DS14\DEBUG\2.PDB" /SUBSYSTEM:CONSOLE /TLBID:1 /DYNAMICBASE /NXCOMPAT /IMPLIB:"C:\USERS\SNOW CHRISTMAS\DROPBOX\자료구조 응용 - 정순기 교수님(2016)\풀이\DS14\DEBUG\2.LIB" /MACHINE:X86 DEBUG\MAIN.OBJ
